127.0.0.1 - - [09/Jan/2018:09:12:35 +0530] "GET / HTTP/1.1" 404 994
0:0:0:0:0:0:0:1 - - [09/Jan/2018:09:12:36 +0530] "GET /Ferrari/ HTTP/1.1" 404 992
0:0:0:0:0:0:0:1 - - [09/Jan/2018:09:13:42 +0530] "GET /Ferrari/ HTTP/1.1" 404 992
0:0:0:0:0:0:0:1 - - [09/Jan/2018:09:13:42 +0530] "GET /favicon.ico HTTP/1.1" 404 1016
0:0:0:0:0:0:0:1 - - [09/Jan/2018:09:14:09 +0530] "GET /Ferrari/ HTTP/1.1" 404 992
0:0:0:0:0:0:0:1 - - [09/Jan/2018:09:14:10 +0530] "GET /Ferrari/ HTTP/1.1" 404 992
0:0:0:0:0:0:0:1 - - [09/Jan/2018:09:14:12 +0530] "GET /Ferrari/ HTTP/1.1" 404 992
0:0:0:0:0:0:0:1 - - [09/Jan/2018:09:14:19 +0530] "GET /Ferrari/ HTTP/1.1" 404 992
0:0:0:0:0:0:0:1 - - [09/Jan/2018:09:14:33 +0530] "GET /Ferrari/events HTTP/1.1" 200 -
0:0:0:0:0:0:0:1 - - [09/Jan/2018:09:15:01 +0530] "GET /Ferrari/events HTTP/1.1" 200 226
0:0:0:0:0:0:0:1 - - [09/Jan/2018:09:16:54 +0530] "GET /Ferrari/events/1 HTTP/1.1" 500 5712
0:0:0:0:0:0:0:1 - - [09/Jan/2018:09:19:29 +0530] "GET /Ferrari/events/1 HTTP/1.1" 500 2168
0:0:0:0:0:0:0:1 - - [09/Jan/2018:09:20:31 +0530] "GET /Ferrari/events/1 HTTP/1.1" 500 5720
0:0:0:0:0:0:0:1 - - [09/Jan/2018:09:22:25 +0530] "GET /Ferrari/events/1 HTTP/1.1" 500 2168
0:0:0:0:0:0:0:1 - - [09/Jan/2018:09:23:10 +0530] "GET /Ferrari/events/1 HTTP/1.1" 200 118
0:0:0:0:0:0:0:1 - - [09/Jan/2018:09:23:41 +0530] "GET /Ferrari/events2 HTTP/1.1" 404 992
0:0:0:0:0:0:0:1 - - [09/Jan/2018:09:24:04 +0530] "GET /Ferrari/events1 HTTP/1.1" 404 992
0:0:0:0:0:0:0:1 - - [09/Jan/2018:09:25:05 +0530] "GET /Ferrari/events/2 HTTP/1.1" 200 120
0:0:0:0:0:0:0:1 - - [09/Jan/2018:09:26:28 +0530] "GET /Ferrari/events/2 HTTP/1.1" 200 120
0:0:0:0:0:0:0:1 - - [09/Jan/2018:09:27:31 +0530] "GET /Ferrari/events/2 HTTP/1.1" 200 120
0:0:0:0:0:0:0:1 - - [09/Jan/2018:09:35:03 +0530] "GET /Ferrari/events/2 HTTP/1.1" 200 120
0:0:0:0:0:0:0:1 - - [09/Jan/2018:09:48:10 +0530] "GET /Ferrari/events/1 HTTP/1.1" 200 118
0:0:0:0:0:0:0:1 - - [09/Jan/2018:09:54:36 +0530] "GET /Ferrari/events/1 HTTP/1.1" 200 -
0:0:0:0:0:0:0:1 - - [09/Jan/2018:09:55:04 +0530] "GET /Ferrari/events/2 HTTP/1.1" 200 120
0:0:0:0:0:0:0:1 - - [09/Jan/2018:09:56:58 +0530] "GET /Ferrari/events/1 HTTP/1.1" 200 118
0:0:0:0:0:0:0:1 - - [09/Jan/2018:09:57:53 +0530] "GET /Ferrari/events/2 HTTP/1.1" 200 120
0:0:0:0:0:0:0:1 - - [09/Jan/2018:10:01:54 +0530] "GET /Ferrari/events/2 HTTP/1.1" 200 -
0:0:0:0:0:0:0:1 - - [09/Jan/2018:10:02:45 +0530] "GET /Ferrari/events/2 HTTP/1.1" 200 120
0:0:0:0:0:0:0:1 - - [09/Jan/2018:10:06:26 +0530] "GET /Ferrari/events/2 HTTP/1.1" 200 120
0:0:0:0:0:0:0:1 - - [09/Jan/2018:10:07:10 +0530] "GET /Ferrari/events/2 HTTP/1.1" 200 120
0:0:0:0:0:0:0:1 - - [09/Jan/2018:10:09:28 +0530] "GET /Ferrari/events/1 HTTP/1.1" 200 118
0:0:0:0:0:0:0:1 - - [09/Jan/2018:10:11:03 +0530] "GET /Ferrari/events/2 HTTP/1.1" 200 120
0:0:0:0:0:0:0:1 - - [09/Jan/2018:10:12:44 +0530] "GET /Ferrari/events/2 HTTP/1.1" 200 120
0:0:0:0:0:0:0:1 - - [09/Jan/2018:10:15:41 +0530] "GET /Ferrari/events/2 HTTP/1.1" 200 -
0:0:0:0:0:0:0:1 - - [09/Jan/2018:10:16:48 +0530] "GET /Ferrari/events/2 HTTP/1.1" 200 120
0:0:0:0:0:0:0:1 - - [09/Jan/2018:10:22:31 +0530] "GET /Ferrari/events/1 HTTP/1.1" 200 118
0:0:0:0:0:0:0:1 - - [09/Jan/2018:11:08:54 +0530] "GET /Ferrari/events/1 HTTP/1.1" 200 118
0:0:0:0:0:0:0:1 - - [09/Jan/2018:11:09:44 +0530] "GET /Ferrari/events/2 HTTP/1.1" 200 120
0:0:0:0:0:0:0:1 - - [09/Jan/2018:11:14:21 +0530] "GET /Ferrari/events/1 HTTP/1.1" 200 118
0:0:0:0:0:0:0:1 - - [09/Jan/2018:12:40:24 +0530] "GET /Ferrari/events/ HTTP/1.1" 200 510
0:0:0:0:0:0:0:1 - - [09/Jan/2018:15:04:18 +0530] "GET /Ferrari/events/4 HTTP/1.1" 200 181
0:0:0:0:0:0:0:1 - - [09/Jan/2018:15:04:23 +0530] "GET /Ferrari/events/2 HTTP/1.1" 200 120
0:0:0:0:0:0:0:1 - - [09/Jan/2018:15:04:51 +0530] "GET /Ferrari/events/4 HTTP/1.1" 200 -
0:0:0:0:0:0:0:1 - - [09/Jan/2018:15:05:20 +0530] "GET /Ferrari/events/2 HTTP/1.1" 200 120
0:0:0:0:0:0:0:1 - - [09/Jan/2018:15:06:37 +0530] "GET /Ferrari/events/2 HTTP/1.1" 200 -
0:0:0:0:0:0:0:1 - - [09/Jan/2018:15:08:19 +0530] "GET /Ferrari/events/2 HTTP/1.1" 200 -
0:0:0:0:0:0:0:1 - - [09/Jan/2018:15:09:46 +0530] "GET /Ferrari/events/2 HTTP/1.1" 200 120
0:0:0:0:0:0:0:1 - - [09/Jan/2018:15:32:55 +0530] "GET /Ferrari/events/1 HTTP/1.1" 200 -
0:0:0:0:0:0:0:1 - - [09/Jan/2018:15:33:17 +0530] "GET /Ferrari/events/1 HTTP/1.1" 200 -
0:0:0:0:0:0:0:1 - - [09/Jan/2018:15:34:08 +0530] "GET /Ferrari/events/2 HTTP/1.1" 200 120
0:0:0:0:0:0:0:1 - - [09/Jan/2018:15:34:11 +0530] "GET /Ferrari/events/1 HTTP/1.1" 200 118
0:0:0:0:0:0:0:1 - - [09/Jan/2018:15:34:17 +0530] "GET /Ferrari/events/4 HTTP/1.1" 200 181
0:0:0:0:0:0:0:1 - - [09/Jan/2018:15:51:09 +0530] "GET /Ferrari/events/2 HTTP/1.1" 200 120
0:0:0:0:0:0:0:1 - - [09/Jan/2018:15:51:42 +0530] "GET /Ferrari/events/2 HTTP/1.1" 200 120
0:0:0:0:0:0:0:1 - - [09/Jan/2018:15:52:02 +0530] "GET /Ferrari/events/2 HTTP/1.1" 200 120
0:0:0:0:0:0:0:1 - - [09/Jan/2018:15:52:07 +0530] "GET /Ferrari/events/2 HTTP/1.1" 200 120
0:0:0:0:0:0:0:1 - - [09/Jan/2018:16:09:28 +0530] "GET /Ferrari/events/1 HTTP/1.1" 200 118
0:0:0:0:0:0:0:1 - - [09/Jan/2018:16:11:39 +0530] "GET /Ferrari/events/1 HTTP/1.1" 200 -
0:0:0:0:0:0:0:1 - - [09/Jan/2018:16:12:03 +0530] "GET /Ferrari/events/2 HTTP/1.1" 200 120
0:0:0:0:0:0:0:1 - - [09/Jan/2018:16:15:10 +0530] "GET /Ferrari/events/2 HTTP/1.1" 200 -
0:0:0:0:0:0:0:1 - - [09/Jan/2018:16:16:08 +0530] "GET /Ferrari/events/2 HTTP/1.1" 200 -
0:0:0:0:0:0:0:1 - - [09/Jan/2018:16:29:50 +0530] "GET /Ferrari/events/2 HTTP/1.1" 200 120
0:0:0:0:0:0:0:1 - - [09/Jan/2018:16:30:46 +0530] "GET /Ferrari/events/2 HTTP/1.1" 200 120
0:0:0:0:0:0:0:1 - - [09/Jan/2018:16:32:01 +0530] "GET /Ferrari/events/1 HTTP/1.1" 200 118
0:0:0:0:0:0:0:1 - - [09/Jan/2018:16:34:19 +0530] "GET /Ferrari/events/2 HTTP/1.1" 200 120
0:0:0:0:0:0:0:1 - - [09/Jan/2018:17:14:45 +0530] "GET /Ferrari/events/2 HTTP/1.1" 200 120
0:0:0:0:0:0:0:1 - - [09/Jan/2018:17:32:04 +0530] "GET /Ferrari/events/2 HTTP/1.1" 200 120
0:0:0:0:0:0:0:1 - - [09/Jan/2018:23:11:42 +0530] "GET /Ferrari/events/1 HTTP/1.1" 200 118
0:0:0:0:0:0:0:1 - - [09/Jan/2018:23:11:45 +0530] "GET /Ferrari/events/2 HTTP/1.1" 200 120
0:0:0:0:0:0:0:1 - - [09/Jan/2018:23:11:54 +0530] "GET /Ferrari/events/3 HTTP/1.1" 200 126
0:0:0:0:0:0:0:1 - - [09/Jan/2018:23:12:02 +0530] "GET /Ferrari/events/4 HTTP/1.1" 200 181
0:0:0:0:0:0:0:1 - - [09/Jan/2018:23:12:11 +0530] "GET /Ferrari/events/2 HTTP/1.1" 200 120
0:0:0:0:0:0:0:1 - - [09/Jan/2018:23:15:40 +0530] "GET /Ferrari/events/2 HTTP/1.1" 200 120
0:0:0:0:0:0:0:1 - - [09/Jan/2018:23:18:14 +0530] "GET /Ferrari/events/2 HTTP/1.1" 200 120
0:0:0:0:0:0:0:1 - - [09/Jan/2018:23:19:57 +0530] "GET /Ferrari/events/2 HTTP/1.1" 200 120
0:0:0:0:0:0:0:1 - - [09/Jan/2018:23:24:15 +0530] "GET /Ferrari/events/2 HTTP/1.1" 200 120
0:0:0:0:0:0:0:1 - - [09/Jan/2018:23:25:39 +0530] "GET /Ferrari/events/1 HTTP/1.1" 200 118
0:0:0:0:0:0:0:1 - - [09/Jan/2018:23:27:38 +0530] "GET /Ferrari/events/1 HTTP/1.1" 200 118
0:0:0:0:0:0:0:1 - - [09/Jan/2018:23:28:08 +0530] "GET /Ferrari/events/1 HTTP/1.1" 200 118
0:0:0:0:0:0:0:1 - - [09/Jan/2018:23:33:24 +0530] "GET /Ferrari/events/1 HTTP/1.1" 200 -
0:0:0:0:0:0:0:1 - - [09/Jan/2018:23:34:54 +0530] "GET /Ferrari/events/1 HTTP/1.1" 200 -
0:0:0:0:0:0:0:1 - - [09/Jan/2018:23:35:48 +0530] "GET /Ferrari/events/1 HTTP/1.1" 200 118
0:0:0:0:0:0:0:1 - - [09/Jan/2018:23:37:23 +0530] "GET /Ferrari/events/1 HTTP/1.1" 200 118
0:0:0:0:0:0:0:1 - - [09/Jan/2018:23:39:16 +0530] "GET /Ferrari/events/1 HTTP/1.1" 200 118
0:0:0:0:0:0:0:1 - - [09/Jan/2018:23:43:34 +0530] "GET /Ferrari/events/1 HTTP/1.1" 200 118
0:0:0:0:0:0:0:1 - - [09/Jan/2018:23:48:37 +0530] "GET /Ferrari/events/1 HTTP/1.1" 200 118
0:0:0:0:0:0:0:1 - - [09/Jan/2018:23:52:14 +0530] "GET /Ferrari/events/1 HTTP/1.1" 200 118
0:0:0:0:0:0:0:1 - - [09/Jan/2018:23:54:45 +0530] "GET /Ferrari/events/1 HTTP/1.1" 200 118
0:0:0:0:0:0:0:1 - - [09/Jan/2018:23:56:25 +0530] "GET /Ferrari/events/1 HTTP/1.1" 200 118
0:0:0:0:0:0:0:1 - - [09/Jan/2018:23:58:33 +0530] "GET /Ferrari/events/1 HTTP/1.1" 200 118
