0:0:0:0:0:0:0:1 - - [03/Feb/2018:23:06:59 +0530] "GET /Ferrari/grandprix HTTP/1.1" 404 1028
0:0:0:0:0:0:0:1 - - [03/Feb/2018:23:24:38 +0530] "GET /Ferrari/history/null HTTP/1.1" 404 1034
0:0:0:0:0:0:0:1 - - [03/Feb/2018:23:26:06 +0530] "GET /Ferrari/grandprix HTTP/1.1" 404 1028
0:0:0:0:0:0:0:1 - - [03/Feb/2018:23:26:06 +0530] "GET /Ferrari/history/null HTTP/1.1" 404 1034
0:0:0:0:0:0:0:1 - - [03/Feb/2018:23:28:17 +0530] "GET /Ferrari/grandprix HTTP/1.1" 404 1028
0:0:0:0:0:0:0:1 - - [03/Feb/2018:23:28:17 +0530] "GET /Ferrari/history/null HTTP/1.1" 404 1034
0:0:0:0:0:0:0:1 - - [03/Feb/2018:23:30:24 +0530] "GET /Ferrari/grandprix HTTP/1.1" 404 1028
0:0:0:0:0:0:0:1 - - [03/Feb/2018:23:30:24 +0530] "GET /Ferrari/history/null HTTP/1.1" 404 1034
0:0:0:0:0:0:0:1 - - [03/Feb/2018:23:31:13 +0530] "GET /Ferrari/grandprix HTTP/1.1" 404 1028
0:0:0:0:0:0:0:1 - - [03/Feb/2018:23:31:13 +0530] "GET /Ferrari/history/null HTTP/1.1" 404 1034
0:0:0:0:0:0:0:1 - - [03/Feb/2018:23:32:53 +0530] "GET /Ferrari/grandprix HTTP/1.1" 404 1028
0:0:0:0:0:0:0:1 - - [03/Feb/2018:23:32:53 +0530] "GET /Ferrari/history/null HTTP/1.1" 404 1034
0:0:0:0:0:0:0:1 - - [03/Feb/2018:23:33:18 +0530] "GET /Ferrari/grandprix HTTP/1.1" 404 1028
0:0:0:0:0:0:0:1 - - [03/Feb/2018:23:33:43 +0530] "GET /Ferrari/grandprix HTTP/1.1" 404 1028
0:0:0:0:0:0:0:1 - - [03/Feb/2018:23:33:44 +0530] "GET /Ferrari/history/null HTTP/1.1" 404 1034
0:0:0:0:0:0:0:1 - - [03/Feb/2018:23:33:54 +0530] "GET /Ferrari/grandprix HTTP/1.1" 404 1028
0:0:0:0:0:0:0:1 - - [03/Feb/2018:23:33:55 +0530] "GET /Ferrari/history/null HTTP/1.1" 404 1034
0:0:0:0:0:0:0:1 - - [03/Feb/2018:23:37:34 +0530] "GET /Ferrari/grandprix HTTP/1.1" 404 1028
0:0:0:0:0:0:0:1 - - [03/Feb/2018:23:37:34 +0530] "GET /Ferrari/history/null HTTP/1.1" 404 1034
0:0:0:0:0:0:0:1 - - [03/Feb/2018:23:38:55 +0530] "GET /Ferrari/grandprix HTTP/1.1" 404 1028
0:0:0:0:0:0:0:1 - - [03/Feb/2018:23:38:55 +0530] "GET /Ferrari/history/null HTTP/1.1" 404 1034
