127.0.0.1 - - [17/Jan/2018:11:05:24 +0530] "GET / HTTP/1.1" 404 994
0:0:0:0:0:0:0:1 - - [17/Jan/2018:11:05:25 +0530] "GET /Ferrari/ HTTP/1.1" 404 992
0:0:0:0:0:0:0:1 - - [17/Jan/2018:11:06:00 +0530] "GET /Ferrari/events HTTP/1.1" 200 4950
0:0:0:0:0:0:0:1 - - [17/Jan/2018:11:06:15 +0530] "GET /Ferrari/events HTTP/1.1" 200 4950
0:0:0:0:0:0:0:1 - - [17/Jan/2018:11:06:23 +0530] "GET /Ferrari/grandprix HTTP/1.1" 200 5081
0:0:0:0:0:0:0:1 - - [17/Jan/2018:11:06:35 +0530] "GET /Ferrari/history/3 HTTP/1.1" 200 2743
0:0:0:0:0:0:0:1 - - [17/Jan/2018:11:13:06 +0530] "GET /Ferrari/events HTTP/1.1" 200 4950
0:0:0:0:0:0:0:1 - - [17/Jan/2018:11:13:15 +0530] "GET /Ferrari/grandprix HTTP/1.1" 200 5081
0:0:0:0:0:0:0:1 - - [17/Jan/2018:11:13:21 +0530] "GET /Ferrari/history/2 HTTP/1.1" 200 12
0:0:0:0:0:0:0:1 - - [17/Jan/2018:11:13:28 +0530] "GET /Ferrari/grandprix HTTP/1.1" 200 5081
0:0:0:0:0:0:0:1 - - [17/Jan/2018:11:13:42 +0530] "GET /Ferrari/grandprix HTTP/1.1" 200 5081
0:0:0:0:0:0:0:1 - - [17/Jan/2018:11:14:39 +0530] "GET /Ferrari/grandprix HTTP/1.1" 200 5081
0:0:0:0:0:0:0:1 - - [17/Jan/2018:11:17:15 +0530] "GET /Ferrari/grandprix HTTP/1.1" 200 5081
0:0:0:0:0:0:0:1 - - [17/Jan/2018:11:22:01 +0530] "OPTIONS /Ferrari/googlemembers HTTP/1.1" 200 -
0:0:0:0:0:0:0:1 - - [17/Jan/2018:11:22:03 +0530] "POST /Ferrari/googlemembers HTTP/1.1" 500 4962
0:0:0:0:0:0:0:1 - - [17/Jan/2018:11:22:21 +0530] "POST /Ferrari/googlemembers HTTP/1.1" 500 4962
0:0:0:0:0:0:0:1 - - [17/Jan/2018:11:27:25 +0530] "GET /Ferrari/grandprix HTTP/1.1" 200 5081
0:0:0:0:0:0:0:1 - - [17/Jan/2018:11:28:13 +0530] "GET /Ferrari/grandprix HTTP/1.1" 200 5081
0:0:0:0:0:0:0:1 - - [17/Jan/2018:11:28:21 +0530] "POST /Ferrari/googlemembers HTTP/1.1" 500 4962
0:0:0:0:0:0:0:1 - - [17/Jan/2018:11:31:45 +0530] "POST /Ferrari/googlemembers HTTP/1.1" 500 4962
0:0:0:0:0:0:0:1 - - [17/Jan/2018:11:51:40 +0530] "GET /Ferrari/events HTTP/1.1" 200 4950
0:0:0:0:0:0:0:1 - - [17/Jan/2018:11:51:57 +0530] "GET /Ferrari/racerdetails/ HTTP/1.1" 200 3567
0:0:0:0:0:0:0:1 - - [17/Jan/2018:11:51:58 +0530] "GET /Ferrari/grandprix HTTP/1.1" 200 5081
0:0:0:0:0:0:0:1 - - [17/Jan/2018:11:52:06 +0530] "GET /Ferrari/history/3 HTTP/1.1" 200 2743
0:0:0:0:0:0:0:1 - - [17/Jan/2018:11:52:19 +0530] "GET /Ferrari/grandprix HTTP/1.1" 200 5081
0:0:0:0:0:0:0:1 - - [17/Jan/2018:12:10:00 +0530] "OPTIONS /Ferrari/getdata HTTP/1.1" 403 20
127.0.0.1 - - [17/Jan/2018:15:09:50 +0530] "GET / HTTP/1.1" 404 994
