127.0.0.1 - - [18/Jan/2018:10:08:51 +0530] "GET / HTTP/1.1" 404 994
0:0:0:0:0:0:0:1 - - [18/Jan/2018:10:09:37 +0530] "GET /Ferrari/events HTTP/1.1" 200 4950
0:0:0:0:0:0:0:1 - - [18/Jan/2018:10:09:37 +0530] "GET /favicon.ico HTTP/1.1" 404 1016
127.0.0.1 - - [18/Jan/2018:10:12:04 +0530] "GET / HTTP/1.1" 404 994
0:0:0:0:0:0:0:1 - - [18/Jan/2018:10:12:25 +0530] "GET /Ferrari/events HTTP/1.1" 200 4950
127.0.0.1 - - [18/Jan/2018:10:27:15 +0530] "GET / HTTP/1.1" 404 994
0:0:0:0:0:0:0:1 - - [18/Jan/2018:10:28:15 +0530] "GET /Ferrari/history/3 HTTP/1.1" 200 2743
127.0.0.1 - - [18/Jan/2018:10:32:20 +0530] "GET / HTTP/1.1" 404 994
0:0:0:0:0:0:0:1 - - [18/Jan/2018:10:40:22 +0530] "GET /Ferrari/events HTTP/1.1" 200 4950
0:0:0:0:0:0:0:1 - - [18/Jan/2018:10:45:44 +0530] "GET /Ferrari/history/3 HTTP/1.1" 200 2743
127.0.0.1 - - [18/Jan/2018:11:03:13 +0530] "GET / HTTP/1.1" 404 994
0:0:0:0:0:0:0:1 - - [18/Jan/2018:12:06:32 +0530] "-" 400 -
0:0:0:0:0:0:0:1 - - [18/Jan/2018:12:06:32 +0530] "-" 400 -
0:0:0:0:0:0:0:1 - - [18/Jan/2018:12:06:39 +0530] "-" 400 -
0:0:0:0:0:0:0:1 - - [18/Jan/2018:12:06:39 +0530] "-" 400 -
0:0:0:0:0:0:0:1 - - [18/Jan/2018:12:06:44 +0530] "-" 400 -
0:0:0:0:0:0:0:1 - - [18/Jan/2018:12:06:44 +0530] "-" 400 -
0:0:0:0:0:0:0:1 - - [18/Jan/2018:12:06:46 +0530] "-" 400 -
0:0:0:0:0:0:0:1 - - [18/Jan/2018:12:06:46 +0530] "-" 400 -
0:0:0:0:0:0:0:1 - - [18/Jan/2018:12:07:10 +0530] "-" 400 -
0:0:0:0:0:0:0:1 - - [18/Jan/2018:12:07:10 +0530] "-" 400 -
0:0:0:0:0:0:0:1 - - [18/Jan/2018:12:07:27 +0530] "-" 400 -
0:0:0:0:0:0:0:1 - - [18/Jan/2018:12:07:27 +0530] "-" 400 -
127.0.0.1 - - [18/Jan/2018:12:08:21 +0530] "GET / HTTP/1.1" 404 994
0:0:0:0:0:0:0:1 - - [18/Jan/2018:12:08:25 +0530] "-" 400 -
0:0:0:0:0:0:0:1 - - [18/Jan/2018:12:08:25 +0530] "-" 400 -
0:0:0:0:0:0:0:1 - - [18/Jan/2018:12:08:49 +0530] "-" 400 -
0:0:0:0:0:0:0:1 - - [18/Jan/2018:12:08:49 +0530] "-" 400 -
0:0:0:0:0:0:0:1 - - [18/Jan/2018:12:08:52 +0530] "-" 400 -
0:0:0:0:0:0:0:1 - - [18/Jan/2018:12:08:52 +0530] "-" 400 -
0:0:0:0:0:0:0:1 - - [18/Jan/2018:12:08:56 +0530] "-" 400 -
0:0:0:0:0:0:0:1 - - [18/Jan/2018:12:08:56 +0530] "-" 400 -
0:0:0:0:0:0:0:1 - - [18/Jan/2018:12:10:05 +0530] "-" 400 -
0:0:0:0:0:0:0:1 - - [18/Jan/2018:12:10:05 +0530] "-" 400 -
0:0:0:0:0:0:0:1 - - [18/Jan/2018:12:10:08 +0530] "-" 400 -
0:0:0:0:0:0:0:1 - - [18/Jan/2018:12:10:08 +0530] "-" 400 -
0:0:0:0:0:0:0:1 - - [18/Jan/2018:12:11:18 +0530] "GET /Ferrari/grandprix HTTP/1.1" 500 7550
127.0.0.1 - - [18/Jan/2018:12:12:26 +0530] "GET / HTTP/1.1" 404 994
0:0:0:0:0:0:0:1 - - [18/Jan/2018:12:12:37 +0530] "GET /Ferrari/grandprix HTTP/1.1" 500 7550
127.0.0.1 - - [18/Jan/2018:12:14:36 +0530] "GET / HTTP/1.1" 404 994
0:0:0:0:0:0:0:1 - - [18/Jan/2018:12:14:45 +0530] "GET /Ferrari/grandprix HTTP/1.1" 500 7550
0:0:0:0:0:0:0:1 - - [18/Jan/2018:12:22:22 +0530] "GET /Ferrari/grandprix HTTP/1.1" 500 7550
0:0:0:0:0:0:0:1 - - [18/Jan/2018:12:27:10 +0530] "GET /Ferrari/grandprix HTTP/1.1" 200 5081
0:0:0:0:0:0:0:1 - - [18/Jan/2018:14:33:03 +0530] "-" 400 -
0:0:0:0:0:0:0:1 - - [18/Jan/2018:14:34:30 +0530] "-" 400 -
