127.0.0.1 - - [19/Jan/2018:11:54:46 +0530] "GET / HTTP/1.1" 404 994
0:0:0:0:0:0:0:1 - - [19/Jan/2018:11:54:47 +0530] "GET /Ferrari/ HTTP/1.1" 200 313
0:0:0:0:0:0:0:1 - - [19/Jan/2018:11:55:06 +0530] "GET /Ferrari/events HTTP/1.1" 200 4950
0:0:0:0:0:0:0:1 - - [19/Jan/2018:14:00:39 +0530] "GET /Ferrari/events HTTP/1.1" 200 5814
0:0:0:0:0:0:0:1 - - [19/Jan/2018:14:01:05 +0530] "GET /Ferrari/grandprix HTTP/1.1" 200 5672
127.0.0.1 - - [19/Jan/2018:14:03:18 +0530] "GET / HTTP/1.1" 404 994
0:0:0:0:0:0:0:1 - - [19/Jan/2018:14:03:19 +0530] "GET /Ferrari/ HTTP/1.1" 200 313
0:0:0:0:0:0:0:1 - - [19/Jan/2018:14:03:32 +0530] "GET /Ferrari/grandprix HTTP/1.1" 200 5672
0:0:0:0:0:0:0:1 - - [19/Jan/2018:14:05:43 +0530] "GET /Ferrari/grandprix HTTP/1.1" 200 5672
127.0.0.1 - - [19/Jan/2018:14:06:46 +0530] "GET / HTTP/1.1" 404 994
0:0:0:0:0:0:0:1 - - [19/Jan/2018:14:06:47 +0530] "GET /Ferrari/ HTTP/1.1" 200 313
0:0:0:0:0:0:0:1 - - [19/Jan/2018:14:06:53 +0530] "GET /Ferrari/grandprix HTTP/1.1" 200 5672
0:0:0:0:0:0:0:1 - - [19/Jan/2018:14:18:27 +0530] "GET /Ferrari/events HTTP/1.1" 200 4701
0:0:0:0:0:0:0:1 - - [19/Jan/2018:14:19:14 +0530] "GET /Ferrari/grandprix HTTP/1.1" 200 5672
127.0.0.1 - - [19/Jan/2018:14:19:51 +0530] "GET / HTTP/1.1" 404 994
0:0:0:0:0:0:0:1 - - [19/Jan/2018:14:20:02 +0530] "GET /Ferrari/grandprix HTTP/1.1" 200 4261
127.0.0.1 - - [19/Jan/2018:14:34:36 +0530] "GET / HTTP/1.1" 404 994
0:0:0:0:0:0:0:1 - - [19/Jan/2018:14:34:51 +0530] "GET /Ferrari/history/3 HTTP/1.1" 200 2567
127.0.0.1 - - [19/Jan/2018:14:36:13 +0530] "GET / HTTP/1.1" 404 994
0:0:0:0:0:0:0:1 - - [19/Jan/2018:14:36:13 +0530] "GET /Ferrari/ HTTP/1.1" 200 313
0:0:0:0:0:0:0:1 - - [19/Jan/2018:14:36:25 +0530] "GET /Ferrari/history/3 HTTP/1.1" 500 12410
127.0.0.1 - - [19/Jan/2018:14:38:55 +0530] "GET / HTTP/1.1" 404 994
0:0:0:0:0:0:0:1 - - [19/Jan/2018:14:39:05 +0530] "GET /Ferrari/history/3 HTTP/1.1" 500 13525
127.0.0.1 - - [19/Jan/2018:14:44:51 +0530] "GET / HTTP/1.1" 404 994
0:0:0:0:0:0:0:1 - - [19/Jan/2018:14:45:03 +0530] "GET /Ferrari/history/3 HTTP/1.1" 200 2567
0:0:0:0:0:0:0:1 - - [19/Jan/2018:14:48:14 +0530] "GET /Ferrari/grandprix HTTP/1.1" 200 4261
0:0:0:0:0:0:0:1 - - [19/Jan/2018:15:11:33 +0530] "-" 400 -
0:0:0:0:0:0:0:1 - - [19/Jan/2018:15:11:33 +0530] "-" 400 -
0:0:0:0:0:0:0:1 - - [19/Jan/2018:15:12:09 +0530] "-" 400 -
0:0:0:0:0:0:0:1 - - [19/Jan/2018:15:12:09 +0530] "-" 400 -
0:0:0:0:0:0:0:1 - - [19/Jan/2018:15:13:47 +0530] "-" 400 -
0:0:0:0:0:0:0:1 - - [19/Jan/2018:15:13:47 +0530] "-" 400 -
127.0.0.1 - - [19/Jan/2018:15:13:47 +0530] "GET / HTTP/1.1" 404 994
0:0:0:0:0:0:0:1 - - [19/Jan/2018:15:13:51 +0530] "-" 400 -
0:0:0:0:0:0:0:1 - - [19/Jan/2018:15:13:51 +0530] "-" 400 -
0:0:0:0:0:0:0:1 - - [19/Jan/2018:15:13:53 +0530] "-" 400 -
0:0:0:0:0:0:0:1 - - [19/Jan/2018:15:13:53 +0530] "-" 400 -
127.0.0.1 - - [19/Jan/2018:15:15:12 +0530] "GET / HTTP/1.1" 404 994
0:0:0:0:0:0:0:1 - - [19/Jan/2018:15:15:30 +0530] "-" 400 -
0:0:0:0:0:0:0:1 - - [19/Jan/2018:15:15:30 +0530] "-" 400 -
0:0:0:0:0:0:0:1 - - [19/Jan/2018:15:15:45 +0530] "-" 400 -
0:0:0:0:0:0:0:1 - - [19/Jan/2018:15:15:45 +0530] "-" 400 -
0:0:0:0:0:0:0:1 - - [19/Jan/2018:15:16:51 +0530] "GET /Ferrari/events HTTP/1.1" 200 4107
0:0:0:0:0:0:0:1 - - [19/Jan/2018:15:17:57 +0530] "GET /Ferrari/history/3 HTTP/1.1" 200 2567
127.0.0.1 - - [19/Jan/2018:15:18:57 +0530] "GET / HTTP/1.1" 404 994
0:0:0:0:0:0:0:1 - - [19/Jan/2018:15:19:16 +0530] "GET /Ferrari/history/3 HTTP/1.1" 500 13525
0:0:0:0:0:0:0:1 - - [19/Jan/2018:15:19:39 +0530] "GET /Ferrari/history/3 HTTP/1.1" 500 13525
0:0:0:0:0:0:0:1 - - [19/Jan/2018:15:19:47 +0530] "GET /Ferrari/history/3 HTTP/1.1" 500 13525
0:0:0:0:0:0:0:1 - - [19/Jan/2018:15:20:02 +0530] "GET /Ferrari/history/3 HTTP/1.1" 500 13525
0:0:0:0:0:0:0:1 - - [19/Jan/2018:15:20:10 +0530] "GET /Ferrari/history/3 HTTP/1.1" 500 13525
0:0:0:0:0:0:0:1 - - [19/Jan/2018:15:20:42 +0530] "GET /Ferrari/history/3 HTTP/1.1" 200 2567
0:0:0:0:0:0:0:1 - - [19/Jan/2018:15:22:23 +0530] "GET /Ferrari/history/3 HTTP/1.1" 500 13527
0:0:0:0:0:0:0:1 - - [19/Jan/2018:15:22:40 +0530] "GET /Ferrari/history/3 HTTP/1.1" 500 13527
0:0:0:0:0:0:0:1 - - [19/Jan/2018:15:24:11 +0530] "GET /Ferrari/history/3 HTTP/1.1" 500 13527
0:0:0:0:0:0:0:1 - - [19/Jan/2018:15:24:33 +0530] "GET /Ferrari/history/3 HTTP/1.1" 200 2567
127.0.0.1 - - [19/Jan/2018:15:25:09 +0530] "GET / HTTP/1.1" 404 994
