127.0.0.1 - - [22/Jan/2018:09:03:30 +0530] "GET / HTTP/1.1" 404 994
0:0:0:0:0:0:0:1 - - [22/Jan/2018:10:04:18 +0530] "GET /Ferrari/events HTTP/1.1" 500 18459
0:0:0:0:0:0:0:1 - - [22/Jan/2018:10:04:19 +0530] "GET /favicon.ico HTTP/1.1" 404 1016
0:0:0:0:0:0:0:1 - - [22/Jan/2018:10:04:43 +0530] "-" 400 -
0:0:0:0:0:0:0:1 - - [22/Jan/2018:10:04:43 +0530] "-" 400 -
0:0:0:0:0:0:0:1 - - [22/Jan/2018:10:04:48 +0530] "-" 400 -
0:0:0:0:0:0:0:1 - - [22/Jan/2018:10:04:48 +0530] "-" 400 -
0:0:0:0:0:0:0:1 - - [22/Jan/2018:10:05:06 +0530] "GET /Ferrari/events HTTP/1.1" 200 4107
0:0:0:0:0:0:0:1 - - [22/Jan/2018:10:07:47 +0530] "OPTIONS /Ferrari/checkemail HTTP/1.1" 200 -
0:0:0:0:0:0:0:1 - - [22/Jan/2018:10:07:47 +0530] "POST /Ferrari/checkemail HTTP/1.1" 500 4146
0:0:0:0:0:0:0:1 - - [22/Jan/2018:10:07:52 +0530] "OPTIONS /Ferrari/checkemail HTTP/1.1" 200 -
0:0:0:0:0:0:0:1 - - [22/Jan/2018:10:07:52 +0530] "POST /Ferrari/checkemail HTTP/1.1" 500 4146
0:0:0:0:0:0:0:1 - - [22/Jan/2018:10:08:00 +0530] "OPTIONS /Ferrari/checkemail HTTP/1.1" 200 -
0:0:0:0:0:0:0:1 - - [22/Jan/2018:10:08:02 +0530] "POST /Ferrari/checkemail HTTP/1.1" 200 14
0:0:0:0:0:0:0:1 - - [22/Jan/2018:10:08:07 +0530] "OPTIONS /Ferrari/validateuser HTTP/1.1" 200 -
0:0:0:0:0:0:0:1 - - [22/Jan/2018:10:08:08 +0530] "POST /Ferrari/validateuser HTTP/1.1" 200 181
0:0:0:0:0:0:0:1 - - [22/Jan/2018:10:08:18 +0530] "GET /Ferrari/grandprix HTTP/1.1" 200 4261
0:0:0:0:0:0:0:1 - - [22/Jan/2018:10:09:05 +0530] "GET /Ferrari/events HTTP/1.1" 200 4107
0:0:0:0:0:0:0:1 - - [22/Jan/2018:10:09:08 +0530] "GET /Ferrari/grandprix HTTP/1.1" 200 4261
0:0:0:0:0:0:0:1 - - [22/Jan/2018:10:09:15 +0530] "GET /Ferrari/events HTTP/1.1" 200 4107
0:0:0:0:0:0:0:1 - - [22/Jan/2018:10:11:19 +0530] "GET /Ferrari/events HTTP/1.1" 200 4107
0:0:0:0:0:0:0:1 - - [22/Jan/2018:10:11:30 +0530] "GET /Ferrari/events HTTP/1.1" 200 4107
0:0:0:0:0:0:0:1 - - [22/Jan/2018:10:11:43 +0530] "GET /Ferrari/events HTTP/1.1" 200 4107
0:0:0:0:0:0:0:1 - - [22/Jan/2018:10:12:39 +0530] "GET /Ferrari/events HTTP/1.1" 200 4107
0:0:0:0:0:0:0:1 - - [22/Jan/2018:10:12:48 +0530] "GET /Ferrari/events HTTP/1.1" 200 4107
0:0:0:0:0:0:0:1 - - [22/Jan/2018:10:13:24 +0530] "GET /Ferrari/events HTTP/1.1" 200 4107
0:0:0:0:0:0:0:1 - - [22/Jan/2018:10:13:37 +0530] "GET /Ferrari/events HTTP/1.1" 200 4107
0:0:0:0:0:0:0:1 - - [22/Jan/2018:10:14:01 +0530] "GET /Ferrari/events HTTP/1.1" 200 4107
0:0:0:0:0:0:0:1 - - [22/Jan/2018:10:14:13 +0530] "GET /Ferrari/events HTTP/1.1" 200 4107
0:0:0:0:0:0:0:1 - - [22/Jan/2018:10:19:26 +0530] "GET /Ferrari/events HTTP/1.1" 200 4107
0:0:0:0:0:0:0:1 - - [22/Jan/2018:10:19:31 +0530] "GET /Ferrari/events HTTP/1.1" 200 4107
0:0:0:0:0:0:0:1 - - [22/Jan/2018:10:19:39 +0530] "GET /Ferrari/events HTTP/1.1" 500 16400
0:0:0:0:0:0:0:1 - - [22/Jan/2018:10:28:59 +0530] "GET /Ferrari/events HTTP/1.1" 500 8200
0:0:0:0:0:0:0:1 - - [22/Jan/2018:10:29:09 +0530] "GET /Ferrari/events HTTP/1.1" 500 8200
0:0:0:0:0:0:0:1 - - [22/Jan/2018:10:29:14 +0530] "GET /Ferrari/events HTTP/1.1" 200 4107
0:0:0:0:0:0:0:1 - - [22/Jan/2018:10:29:19 +0530] "GET /Ferrari/events HTTP/1.1" 200 4107
0:0:0:0:0:0:0:1 - - [22/Jan/2018:10:29:42 +0530] "GET /Ferrari/events HTTP/1.1" 200 4107
0:0:0:0:0:0:0:1 - - [22/Jan/2018:11:01:31 +0530] "GET /Ferrari/events HTTP/1.1" 500 18339
0:0:0:0:0:0:0:1 - - [22/Jan/2018:11:02:17 +0530] "GET /Ferrari/events HTTP/1.1" 200 4107
0:0:0:0:0:0:0:1 - - [22/Jan/2018:11:05:14 +0530] "GET /Ferrari/events HTTP/1.1" 200 4107
0:0:0:0:0:0:0:1 - - [22/Jan/2018:11:05:19 +0530] "GET /Ferrari/events HTTP/1.1" 200 4107
0:0:0:0:0:0:0:1 - - [22/Jan/2018:11:05:32 +0530] "GET /Ferrari/events HTTP/1.1" 200 -
0:0:0:0:0:0:0:1 - - [22/Jan/2018:11:05:45 +0530] "GET /Ferrari/events HTTP/1.1" 200 4107
0:0:0:0:0:0:0:1 - - [22/Jan/2018:11:06:12 +0530] "GET /Ferrari/events HTTP/1.1" 200 4107
0:0:0:0:0:0:0:1 - - [22/Jan/2018:11:06:17 +0530] "GET /Ferrari/events HTTP/1.1" 200 4107
0:0:0:0:0:0:0:1 - - [22/Jan/2018:11:06:22 +0530] "GET /Ferrari/events HTTP/1.1" 200 4107
0:0:0:0:0:0:0:1 - - [22/Jan/2018:11:06:41 +0530] "GET /Ferrari/events HTTP/1.1" 200 4107
0:0:0:0:0:0:0:1 - - [22/Jan/2018:11:06:52 +0530] "GET /Ferrari/events HTTP/1.1" 200 -
0:0:0:0:0:0:0:1 - - [22/Jan/2018:11:06:57 +0530] "GET /Ferrari/events HTTP/1.1" 200 4107
0:0:0:0:0:0:0:1 - - [22/Jan/2018:11:07:02 +0530] "GET /Ferrari/events HTTP/1.1" 200 4107
0:0:0:0:0:0:0:1 - - [22/Jan/2018:11:07:19 +0530] "GET /Ferrari/events HTTP/1.1" 200 4107
0:0:0:0:0:0:0:1 - - [22/Jan/2018:11:07:49 +0530] "GET /Ferrari/events HTTP/1.1" 200 4107
0:0:0:0:0:0:0:1 - - [22/Jan/2018:11:07:54 +0530] "GET /Ferrari/events HTTP/1.1" 200 4107
0:0:0:0:0:0:0:1 - - [22/Jan/2018:11:08:06 +0530] "GET /Ferrari/events HTTP/1.1" 200 4107
0:0:0:0:0:0:0:1 - - [22/Jan/2018:11:08:17 +0530] "GET /Ferrari/events HTTP/1.1" 200 4107
0:0:0:0:0:0:0:1 - - [22/Jan/2018:11:08:38 +0530] "GET /Ferrari/events HTTP/1.1" 200 4107
0:0:0:0:0:0:0:1 - - [22/Jan/2018:11:08:53 +0530] "GET /Ferrari/events HTTP/1.1" 200 4107
0:0:0:0:0:0:0:1 - - [22/Jan/2018:11:10:30 +0530] "GET /Ferrari/events HTTP/1.1" 200 4107
0:0:0:0:0:0:0:1 - - [22/Jan/2018:11:10:41 +0530] "GET /Ferrari/events HTTP/1.1" 200 4107
0:0:0:0:0:0:0:1 - - [22/Jan/2018:11:11:10 +0530] "GET /Ferrari/events HTTP/1.1" 200 4107
0:0:0:0:0:0:0:1 - - [22/Jan/2018:11:11:29 +0530] "GET /Ferrari/events HTTP/1.1" 200 4107
0:0:0:0:0:0:0:1 - - [22/Jan/2018:11:11:54 +0530] "GET /Ferrari/events HTTP/1.1" 200 4107
0:0:0:0:0:0:0:1 - - [22/Jan/2018:11:12:03 +0530] "GET /Ferrari/events HTTP/1.1" 200 4107
0:0:0:0:0:0:0:1 - - [22/Jan/2018:11:12:42 +0530] "GET /Ferrari/events HTTP/1.1" 200 4107
0:0:0:0:0:0:0:1 - - [22/Jan/2018:11:13:06 +0530] "GET /Ferrari/events HTTP/1.1" 200 4107
0:0:0:0:0:0:0:1 - - [22/Jan/2018:11:14:54 +0530] "GET /Ferrari/events HTTP/1.1" 200 4107
0:0:0:0:0:0:0:1 - - [22/Jan/2018:11:15:32 +0530] "GET /Ferrari/events HTTP/1.1" 200 4107
0:0:0:0:0:0:0:1 - - [22/Jan/2018:11:15:49 +0530] "GET /Ferrari/events HTTP/1.1" 200 -
0:0:0:0:0:0:0:1 - - [22/Jan/2018:11:15:55 +0530] "GET /Ferrari/events HTTP/1.1" 200 4107
0:0:0:0:0:0:0:1 - - [22/Jan/2018:11:17:34 +0530] "GET /Ferrari/events HTTP/1.1" 200 4107
0:0:0:0:0:0:0:1 - - [22/Jan/2018:11:18:19 +0530] "GET /Ferrari/events HTTP/1.1" 200 4107
0:0:0:0:0:0:0:1 - - [22/Jan/2018:11:21:11 +0530] "GET /Ferrari/events HTTP/1.1" 200 4107
0:0:0:0:0:0:0:1 - - [22/Jan/2018:11:21:20 +0530] "GET /Ferrari/events HTTP/1.1" 200 4107
0:0:0:0:0:0:0:1 - - [22/Jan/2018:11:21:46 +0530] "GET /Ferrari/events HTTP/1.1" 200 4107
0:0:0:0:0:0:0:1 - - [22/Jan/2018:11:21:56 +0530] "GET /Ferrari/events HTTP/1.1" 200 4107
0:0:0:0:0:0:0:1 - - [22/Jan/2018:11:22:14 +0530] "GET /Ferrari/events HTTP/1.1" 200 4107
0:0:0:0:0:0:0:1 - - [22/Jan/2018:11:22:20 +0530] "GET /Ferrari/events HTTP/1.1" 200 4107
0:0:0:0:0:0:0:1 - - [22/Jan/2018:11:22:26 +0530] "GET /Ferrari/events HTTP/1.1" 200 4107
0:0:0:0:0:0:0:1 - - [22/Jan/2018:11:22:46 +0530] "GET /Ferrari/events HTTP/1.1" 200 4107
0:0:0:0:0:0:0:1 - - [22/Jan/2018:11:22:56 +0530] "GET /Ferrari/events HTTP/1.1" 200 4107
0:0:0:0:0:0:0:1 - - [22/Jan/2018:11:23:03 +0530] "GET /Ferrari/events HTTP/1.1" 200 4107
0:0:0:0:0:0:0:1 - - [22/Jan/2018:11:23:51 +0530] "GET /Ferrari/events HTTP/1.1" 200 4107
0:0:0:0:0:0:0:1 - - [22/Jan/2018:11:24:37 +0530] "GET /Ferrari/events HTTP/1.1" 200 4107
0:0:0:0:0:0:0:1 - - [22/Jan/2018:11:26:22 +0530] "GET /Ferrari/events HTTP/1.1" 200 4107
0:0:0:0:0:0:0:1 - - [22/Jan/2018:11:27:29 +0530] "GET /Ferrari/events HTTP/1.1" 200 4107
0:0:0:0:0:0:0:1 - - [22/Jan/2018:11:27:34 +0530] "GET /Ferrari/events HTTP/1.1" 200 4107
0:0:0:0:0:0:0:1 - - [22/Jan/2018:11:28:35 +0530] "GET /Ferrari/events HTTP/1.1" 200 4107
0:0:0:0:0:0:0:1 - - [22/Jan/2018:11:29:23 +0530] "GET /Ferrari/events HTTP/1.1" 200 4107
0:0:0:0:0:0:0:1 - - [22/Jan/2018:11:29:36 +0530] "GET /Ferrari/events HTTP/1.1" 200 4107
0:0:0:0:0:0:0:1 - - [22/Jan/2018:11:30:10 +0530] "GET /Ferrari/events HTTP/1.1" 200 4107
0:0:0:0:0:0:0:1 - - [22/Jan/2018:11:30:23 +0530] "GET /Ferrari/events HTTP/1.1" 200 -
0:0:0:0:0:0:0:1 - - [22/Jan/2018:11:30:27 +0530] "GET /Ferrari/events HTTP/1.1" 200 4107
0:0:0:0:0:0:0:1 - - [22/Jan/2018:11:33:12 +0530] "GET /Ferrari/events HTTP/1.1" 200 4107
0:0:0:0:0:0:0:1 - - [22/Jan/2018:11:33:29 +0530] "GET /Ferrari/events HTTP/1.1" 200 -
0:0:0:0:0:0:0:1 - - [22/Jan/2018:11:33:33 +0530] "GET /Ferrari/events HTTP/1.1" 200 4107
0:0:0:0:0:0:0:1 - - [22/Jan/2018:12:01:06 +0530] "GET /Ferrari/men/catageory/1 HTTP/1.1" 500 18711
0:0:0:0:0:0:0:1 - - [22/Jan/2018:12:02:42 +0530] "GET /Ferrari/events HTTP/1.1" 200 4107
0:0:0:0:0:0:0:1 - - [22/Jan/2018:12:03:33 +0530] "GET /Ferrari/events HTTP/1.1" 200 4107
0:0:0:0:0:0:0:1 - - [22/Jan/2018:13:59:54 +0530] "GET /Ferrari/grandprix HTTP/1.1" 500 18491
0:0:0:0:0:0:0:1 - - [22/Jan/2018:14:00:14 +0530] "GET /Ferrari/events HTTP/1.1" 200 4107
0:0:0:0:0:0:0:1 - - [22/Jan/2018:14:01:19 +0530] "GET /Ferrari/men/catageory/1 HTTP/1.1" 500 -
0:0:0:0:0:0:0:1 - - [22/Jan/2018:14:02:27 +0530] "GET /Ferrari/grandprix HTTP/1.1" 200 4261
0:0:0:0:0:0:0:1 - - [22/Jan/2018:14:02:36 +0530] "GET /Ferrari/history/3 HTTP/1.1" 200 2567
0:0:0:0:0:0:0:1 - - [22/Jan/2018:14:02:45 +0530] "GET /Ferrari/men/catageory/1 HTTP/1.1" 500 -
0:0:0:0:0:0:0:1 - - [22/Jan/2018:14:35:35 +0530] "GET /Ferrari/grandprix HTTP/1.1" 500 18611
0:0:0:0:0:0:0:1 - - [22/Jan/2018:14:36:33 +0530] "GET /Ferrari/events HTTP/1.1" 200 4107
0:0:0:0:0:0:0:1 - - [22/Jan/2018:14:37:29 +0530] "GET /Ferrari/grandprix HTTP/1.1" 200 4261
0:0:0:0:0:0:0:1 - - [22/Jan/2018:14:57:05 +0530] "GET /Ferrari/history/4 HTTP/1.1" 500 18587
0:0:0:0:0:0:0:1 - - [22/Jan/2018:15:04:06 +0530] "GET /Ferrari/events HTTP/1.1" 200 4107
0:0:0:0:0:0:0:1 - - [22/Jan/2018:16:14:29 +0530] "GET /Ferrari/grandprix HTTP/1.1" 500 18491
0:0:0:0:0:0:0:1 - - [22/Jan/2018:16:19:01 +0530] "GET /Ferrari/events HTTP/1.1" 200 4107
0:0:0:0:0:0:0:1 - - [22/Jan/2018:17:00:43 +0530] "GET /Ferrari/grandprix HTTP/1.1" 500 18611
0:0:0:0:0:0:0:1 - - [22/Jan/2018:17:05:58 +0530] "GET /Ferrari/events HTTP/1.1" 200 4107
0:0:0:0:0:0:0:1 - - [22/Jan/2018:17:33:40 +0530] "GET /Ferrari/grandprix HTTP/1.1" 500 18609
